…
library(gapminder)

#in case the gapminder install isn't working
#gapminder <- read.csv("https://raw.githubusercontent.com/swcarpentry/r-novice-gapminder/gh-pages/_episodes_rmd/data/gapminder_data.csv", stringsAsFactors = TRUE)

II. Examine your data

Always begin by first looking at your data. Notice the structure, the variable types, missing data points, etc. This will inform your analysis.

To see what information is stored in an object in R, type out the name. Here, gapminder is our object, put your cursor on that line, then type Cmd + Enter for Macs or Ctrl + Enter for PCs. The first ten rows will appear below the chunk.

# You can see your data by typing the dataset name: gapminder, or using the function str()
gapminder

## # A tibble: 1,704 × 6
##    country     continent  year lifeExp      pop gdpPercap
##    <fct>       <fct>     <int>   <dbl>    <int>     <dbl>
##  1 Afghanistan Asia       1952    28.8  8425333      779.
##  2 Afghanistan Asia       1957    30.3  9240934      821.
##  3 Afghanistan Asia       1962    32.0 10267083      853.
##  4 Afghanistan Asia       1967    34.0 11537966      836.
##  5 Afghanistan Asia       1972    36.1 13079460      740.
##  6 Afghanistan Asia       1977    38.4 14880372      786.
##  7 Afghanistan Asia       1982    39.9 12881816      978.
##  8 Afghanistan Asia       1987    40.8 13867957      852.
##  9 Afghanistan Asia       1992    41.7 16317921      649.
## 10 Afghanistan Asia       1997    41.8 22227415      635.
## # … with 1,694 more rows
…
III. Use select() to subset

Once we have examined our data and understood the structure of variables and observations, we can use the select() function to subset only the variables we specify.

# 1. Use select() to subset the variables (columns) country, year, and gdpPercap
#hint - you can use the function colnames() to see the column names, or just type gapminder into the console to view the first 10 lines
colnames(gapminder)

## [1] "country"   "continent" "year"      "lifeExp"   "pop"       "gdpPercap"

gapminder

## # A tibble: 1,704 × 6
##    country     continent  year lifeExp      pop gdpPercap
##    <fct>       <fct>     <int>   <dbl>    <int>     <dbl>
##  1 Afghanistan Asia       1952    28.8  8425333      779.
##  2 Afghanistan Asia       1957    30.3  9240934      821.
##  3 Afghanistan Asia       1962    32.0 10267083      853.
##  4 Afghanistan Asia       1967    34.0 11537966      836.
##  5 Afghanistan Asia       1972    36.1 13079460      740.
##  6 Afghanistan Asia       1977    38.4 14880372      786.
##  7 Afghanistan Asia       1982    39.9 12881816      978.
##  8 Afghanistan Asia       1987    40.8 13867957      852.
##  9 Afghanistan Asia       1992    41.7 16317921      649.
## 10 Afghanistan Asia       1997    41.8 22227415      635.
## # … with 1,694 more rows

select(gapminder, country, year, gdpPercap)

## # A tibble: 1,704 × 3
##    country      year gdpPercap
##    <fct>       <int>     <dbl>
##  1 Afghanistan  1952      779.
##  2 Afghanistan  1957      821.
##  3 Afghanistan  1962      853.
##  4 Afghanistan  1967      836.
##  5 Afghanistan  1972      740.
##  6 Afghanistan  1977      786.
##  7 Afghanistan  1982      978.
##  8 Afghanistan  1987      852.
##  9 Afghanistan  1992      649.
## 10 Afghanistan  1997      635.
## # … with 1,694 more rows

# 2. Remove the `continent` column 
#hint - use the operator "!" or "-"
select(gapminder, -continent)

## # A tibble: 1,704 × 5
##    country      year lifeExp      pop gdpPercap
##    <fct>       <int>   <dbl>    <int>     <dbl>
##  1 Afghanistan  1952    28.8  8425333      779.
##  2 Afghanistan  1957    30.3  9240934      821.
##  3 Afghanistan  1962    32.0 10267083      853.
##  4 Afghanistan  1967    34.0 11537966      836.
##  5 Afghanistan  1972    36.1 13079460      740.
##  6 Afghanistan  1977    38.4 14880372      786.
##  7 Afghanistan  1982    39.9 12881816      978.
##  8 Afghanistan  1987    40.8 13867957      852.
##  9 Afghanistan  1992    41.7 16317921      649.
## 10 Afghanistan  1997    41.8 22227415      635.
## # … with 1,694 more rows

select(gapminder, !continent)

## # A tibble: 1,704 × 5
##    country      year lifeExp      pop gdpPercap
##    <fct>       <int>   <dbl>    <int>     <dbl>
##  1 Afghanistan  1952    28.8  8425333      779.
##  2 Afghanistan  1957    30.3  9240934      821.
##  3 Afghanistan  1962    32.0 10267083      853.
##  4 Afghanistan  1967    34.0 11537966      836.
##  5 Afghanistan  1972    36.1 13079460      740.
##  6 Afghanistan  1977    38.4 14880372      786.
##  7 Afghanistan  1982    39.9 12881816      978.
##  8 Afghanistan  1987    40.8 13867957      852.
##  9 Afghanistan  1992    41.7 16317921      649.
## 10 Afghanistan  1997    41.8 22227415      635.
## # … with 1,694 more rows

# 3. Select only the columns that start with the letter "c"
#hint - use the helper function starts_with()
select(gapminder, starts_with("c"))

## # A tibble: 1,704 × 2
##    country     continent
##    <fct>       <fct>    
##  1 Afghanistan Asia     
##  2 Afghanistan Asia     
##  3 Afghanistan Asia     
##  4 Afghanistan Asia     
##  5 Afghanistan Asia     
##  6 Afghanistan Asia     
##  7 Afghanistan Asia     
##  8 Afghanistan Asia     
##  9 Afghanistan Asia     
## 10 Afghanistan Asia     
## # … with 1,694 more rows

IV. Use filter() to subset

select() returns a subset of specified variables (columns)
filter() returns a subset of specified observations (rows)

# 1. Use filter() to subset only European countries 
#hint - use "==", and be careful about when to use quotations
filter(gapminder, continent == "Europe")

## # A tibble: 360 × 6
##    country continent  year lifeExp     pop gdpPercap
##    <fct>   <fct>     <int>   <dbl>   <int>     <dbl>
##  1 Albania Europe     1952    55.2 1282697     1601.
##  2 Albania Europe     1957    59.3 1476505     1942.
##  3 Albania Europe     1962    64.8 1728137     2313.
##  4 Albania Europe     1967    66.2 1984060     2760.
##  5 Albania Europe     1972    67.7 2263554     3313.
##  6 Albania Europe     1977    68.9 2509048     3533.
##  7 Albania Europe     1982    70.4 2780097     3631.
##  8 Albania Europe     1987    72   3075321     3739.
##  9 Albania Europe     1992    71.6 3326498     2497.
## 10 Albania Europe     1997    73.0 3428038     3193.
## # … with 350 more rows

# 2. Filter rows of only European countries with a year above 1960
filter(gapminder, continent == "Europe", year > 1960)

## # A tibble: 300 × 6
##    country continent  year lifeExp     pop gdpPercap
##    <fct>   <fct>     <int>   <dbl>   <int>     <dbl>
##  1 Albania Europe     1962    64.8 1728137     2313.
##  2 Albania Europe     1967    66.2 1984060     2760.
##  3 Albania Europe     1972    67.7 2263554     3313.
##  4 Albania Europe     1977    68.9 2509048     3533.
##  5 Albania Europe     1982    70.4 2780097     3631.
##  6 Albania Europe     1987    72   3075321     3739.
##  7 Albania Europe     1992    71.6 3326498     2497.
##  8 Albania Europe     1997    73.0 3428038     3193.
##  9 Albania Europe     2002    75.7 3508512     4604.
## 10 Albania Europe     2007    76.4 3600523     5937.
## # … with 290 more rows

V. New data frames and using pipes

We often need to combine multiple functions together using pipes (%>%). Pipes allow the data to be passed along onto the next step. Multiple lines of code can be run in the same command using multiple pipes. Because pipes are combining functions, the order in which they are written matter!

We will also create new data tables with our subsets of data. We can do this by first creating a new object, assigning it (<-) to the data frame to be manipulated, and using pipes to combine several functions to subset the data.

# 1. Use a pipe to filter only European countries and select only the variables country, year, and gdpPercap
#hint - notice how R recognizes the objects in your data frame now
#hint - the order of functions matter!
gapminder %>% 
  filter(continent == "Europe") %>% 
  select(country, year, gdpPercap)

## # A tibble: 360 × 3
##    country  year gdpPercap
##    <fct>   <int>     <dbl>
##  1 Albania  1952     1601.
##  2 Albania  1957     1942.
##  3 Albania  1962     2313.
##  4 Albania  1967     2760.
##  5 Albania  1972     3313.
##  6 Albania  1977     3533.
##  7 Albania  1982     3631.
##  8 Albania  1987     3739.
##  9 Albania  1992     2497.
## 10 Albania  1997     3193.
## # … with 350 more rows
…
