…
#Take a loot at gapminder, notice it has 3 "ID variables" (continent, country, year) and 3 "observation variables" (pop, lifeExp, gdpPercap)
gapminder

## # A tibble: 1,704 × 6
##    country     continent  year lifeExp      pop gdpPercap
##    <fct>       <fct>     <int>   <dbl>    <int>     <dbl>
##  1 Afghanistan Asia       1952    28.8  8425333      779.
##  2 Afghanistan Asia       1957    30.3  9240934      821.
##  3 Afghanistan Asia       1962    32.0 10267083      853.
##  4 Afghanistan Asia       1967    34.0 11537966      836.
##  5 Afghanistan Asia       1972    36.1 13079460      740.
##  6 Afghanistan Asia       1977    38.4 14880372      786.
##  7 Afghanistan Asia       1982    39.9 12881816      978.
##  8 Afghanistan Asia       1987    40.8 13867957      852.
##  9 Afghanistan Asia       1992    41.7 16317921      649.
## 10 Afghanistan Asia       1997    41.8 22227415      635.
## # … with 1,694 more rows

#The "long" format will have all 3 observation variables in the other column

# Use pivot_longer to build a new long format table called gapminder_longer
#hint - think about which variables you are going to combine into a single column

gapminder_longer <- gapminder %>% 
  pivot_longer(cols = c("pop", "lifeExp", "gdpPercap"), names_to = "key", values_to = "values" )

gapminder_longer

## # A tibble: 5,112 × 5
##    country     continent  year key           values
##    <fct>       <fct>     <int> <chr>          <dbl>
##  1 Afghanistan Asia       1952 pop        8425333  
##  2 Afghanistan Asia       1952 lifeExp         28.8
##  3 Afghanistan Asia       1952 gdpPercap      779. 
##  4 Afghanistan Asia       1957 pop        9240934  
##  5 Afghanistan Asia       1957 lifeExp         30.3
##  6 Afghanistan Asia       1957 gdpPercap      821. 
##  7 Afghanistan Asia       1962 pop       10267083  
##  8 Afghanistan Asia       1962 lifeExp         32.0
##  9 Afghanistan Asia       1962 gdpPercap      853. 
## 10 Afghanistan Asia       1967 pop       11537966  
## # … with 5,102 more rows
…
